   perfective    |  imperfective   
-----------------+-----------------
 мочь            | смочь
 говорить        | сказать
 говорить        | поговорить
 становиться     | стать
 идти            | пойти
 хотеть          | захотеть
 видеть          | увидеть
 думать          | подумать
 ничто           | ничего
 спрашивать      | спросить
 делать          | сделать
 жить            | пожить
 учиться         | научиться
 давать          | дать
 сидеть          | посидеть
 начинать        | начать
 писать          | написать
 смотреть        | посмотреть
 выходить        | выйти
 любить          | полюбить
 решать          | решить
 уходить         | уйти
 проходить       | пройти
 ждать           | подождать
 получать        | получить
 слушать         | послушать
 рассказывать    | рассказать
 понимать        | понять
 находить        | найти
 ходить          | пoходить
 ходить          | сходить
 узнавать        | узнать
 входить         | войти
 лежать          | полежать
 отвечать        | ответить
 помнить         | вспомнить
 просить         | попросить
 возвращаться    | вернуться
 спать           | поспать
 приезжать       | приехать
 подходить       | подойти
 оказываться     | оказаться
 играть          | сыграть
 приходить       | прийти
 продолжать      | продолжить
 замечать        | заметить
 уметь           | суметь
 бежать          | побежать
 помогать        | помочь
 молчать         | замолчать
 петь            | спеть
 ехать           | поехать
 считать         | сосчитать
 считать         | счесть
 кричать         | закричать
 успевать        | успеть
 поднимать       | поднять
 брать           | взять
 забывать        | забыть
 звать           | позвать
 ставить         | поставить
 принимать       | принять
 садиться        | сесть
 вставать        | встать
 приносить       | принести
 собираться      | собраться
 попадать        | попасть
 следовать       | последовать
 расти           | вырасти
 хотеться        | захотеться
 приходиться     | прийтись
 встречать       | встретить
 останавливаться | остановиться
 появляться      | появиться
 являться        | явиться
 подниматься     | подняться
 нравиться       | понравиться
 строить         | построить
 показывать      | показать
 стараться       | постараться
 учить           | научить
 учить           | выучить
 случаться       | случиться
 называть        | назвать
 улыбаться       | улыбнуться
 открывать       | открыть
 оставаться      | остаться
 начинаться      | начаться
 находиться      | найтись
 глядеть         | поглядеть
 верить          | поверить
 представлять    | представить
 искать          | поискать
 служить         | послужить
 есть            | съесть
 требовать       | потребовать
 пить            | выпить
 бросать         | бросить
 смеяться        | рас-
 смеяться        | засмеяться
 приводить       | привести
 происходить     | произойти
 бить            | побить
 взглядывать     | взглянуть
 передавать      | передать
 отдавать        | отдать
 хватать         | хватить
 выступать       | выступить
 занимать        | занять
 желать          | пожелать
 действовать     | подействовать
 прощать         | простить
 связывать       | связать
 мешать          | помешать
 вызывать        | вызвать
 удаваться       | удаться
 пытаться        | попытаться
 убивать         | убить
 пользоваться    | воспользоваться
 печь            | испечь
 казаться        | показаться
 плакать         | заплакать
 падать          | пасть
 заявлять        | заявить
 снимать         | снять
 относиться      | отнестись
 переставать     | перестать
 покупать        | купить
 пускать         | пустить
 терять          | потерять
 посылать        | послать
 выполнять       | выполнить
 добиваться      | добиться
 умирать         | умереть
 предлагать      | предложить
 создавать       | создать
 касаться        | коснуться
 приказывать     | приказать
(138 filas)

